<svg height="52" width="52">
    <defs>
        <clipPath id="svgPath">
          <path fill="#FFFFFF" stroke="#000000" d="M2,50v2H8V50h4V48h8v2H32V48h8v2h4v2h6V50h2V44H50V40H48V32h2V20H48V12h2V8h2V2H50V0H44V2H40V4H32V2H20V4H12V2H8V0H2V2H0V8H2v4H4v8H2V32H4v8H2v4H0v6"/>
        </clipPath>
    </defs>
</svg>